Final Project
…
Looking at Total Number of Vehicles in April and November in 2017 and 2020

# Examining Total Number of Cars in April
pike_class_speed_joined %>% 
  filter(month == 4 & year == 2017) %>% 
  select(total)

## # A tibble: 200 x 6
## # Groups:   total, direction, location, year, month, day [200]
##    direction location  year month   day total
##    <chr>     <chr>    <dbl> <dbl> <dbl> <dbl>
##  1 EB        AET09     2017     4     3 55419
##  2 EB        AET09     2017     4     4 53169
##  3 EB        AET09     2017     4     5 59360
##  4 EB        AET09     2017     4     6 58283
##  5 EB        AET09     2017     4     7 65447
##  6 EB        AET09     2017     4    10 57449
##  7 EB        AET09     2017     4    11 59673
##  8 EB        AET09     2017     4    12 61067
##  9 EB        AET09     2017     4    13 63771
## 10 EB        AET09     2017     4    14 67158
## # ... with 190 more rows

pike_class_speed_joined %>% 
  filter(month == 4 & year == 2020) %>% 
  select(total)

## # A tibble: 220 x 6
## # Groups:   total, direction, location, year, month, day [220]
##    direction location  year month   day total
##    <chr>     <chr>    <dbl> <dbl> <dbl> <dbl>
##  1 EB        AET09     2020     4     1 20246
##  2 EB        AET09     2020     4     2 18772
##  3 EB        AET09     2020     4     3 18702
##  4 EB        AET09     2020     4     6 18921
##  5 EB        AET09     2020     4     7 19216
##  6 EB        AET09     2020     4     8 18476
##  7 EB        AET09     2020     4     9 18069
##  8 EB        AET09     2020     4    10 19076
##  9 EB        AET09     2020     4    13 16218
## 10 EB        AET09     2020     4    14 20299
## # ... with 210 more rows

# Examining Yearly Average Speeds in November
pike_class_speed_joined %>% 
  filter(month == 11 & year == 2017) %>% 
  select(total)

## # A tibble: 220 x 6
## # Groups:   total, direction, location, year, month, day [220]
##    direction location  year month   day total
##    <chr>     <chr>    <dbl> <dbl> <dbl> <dbl>
##  1 EB        AET09     2017    11     1 57569
##  2 EB        AET09     2017    11     2 58551
##  3 EB        AET09     2017    11     3 62793
##  4 EB        AET09     2017    11     6 53960
##  5 EB        AET09     2017    11     7 54714
##  6 EB        AET09     2017    11     8 55294
##  7 EB        AET09     2017    11     9 60835
##  8 EB        AET09     2017    11    10 64995
##  9 EB        AET09     2017    11    13 53356
## 10 EB        AET09     2017    11    14 54480
## # ... with 210 more rows

pike_class_speed_joined %>% 
  filter(month == 11 & year == 2020) %>% 
  select(total)

## # A tibble: 210 x 6
## # Groups:   total, direction, location, year, month, day [210]
##    direction location  year month   day total
##    <chr>     <chr>    <dbl> <dbl> <dbl> <dbl>
##  1 EB        AET09     2020    11     2 40894
##  2 EB        AET09     2020    11     3 40857
##  3 EB        AET09     2020    11     4 43164
##  4 EB        AET09     2020    11     5 43600
##  5 EB        AET09     2020    11     6 45736
##  6 EB        AET09     2020    11     9 40836
##  7 EB        AET09     2020    11    10 41502
##  8 EB        AET09     2020    11    11 38608
##  9 EB        AET09     2020    11    12 41837
## 10 EB        AET09     2020    11    13 43155
## # ... with 200 more rows
…
